## Autogenerated by Scribe. DO NOT MODIFY.

name: Feed
description: |-

  APIs for managing user feed
endpoints:
  -
    httpMethods:
      - GET
    uri: api/feed
    metadata:
      groupName: Feed
      groupDescription: |-

        APIs for managing user feed
      subgroup: ''
      subgroupDescription: ''
      title: 'Get personalized feed for the authenticated user'
      description: ''
      authenticated: false
      deprecated: false
      custom: []
    headers:
      Content-Type: application/json
      Accept: application/json
    urlParameters: []
    cleanUrlParameters: []
    queryParameters:
      page:
        name: page
        description: 'Page number for pagination.'
        required: false
        example: 1
        type: integer
        enumValues: []
        exampleWasSpecified: true
        nullable: false
        custom: []
      per_page:
        name: per_page
        description: 'Number of items per page.'
        required: false
        example: 20
        type: integer
        enumValues: []
        exampleWasSpecified: true
        nullable: false
        custom: []
    cleanQueryParameters:
      page: 1
      per_page: 20
    bodyParameters: []
    cleanBodyParameters: []
    fileParameters: []
    responses:
      -
        status: 200
        content: |-
          {
            "success": true,
            "data": {
              "data": [
                {
                  "id": 1,
                  "type": "post",
                  "content": "Amazing adventure!",
                  "user": {
                    "id": 1,
                    "name": "John Doe"
                  },
                  "created_at": "2024-01-01T00:00:00.000000Z"
                }
              ],
              "pagination": {
                "current_page": 1,
                "last_page": 10,
                "per_page": 20,
                "total": 200
              }
            }
          }
        headers: []
        description: ''
        custom: []
    responseFields: []
    auth: []
    controller: null
    method: null
    route: null
    custom: []
