name: 'Follow Lists'
description: |-

  APIs for managing follow relationships and lists
endpoints:
  -
    httpMethods:
      - GET
    uri: api/follow/followers
    metadata:
      groupName: 'Follow Lists'
      groupDescription: |-

        APIs for managing follow relationships and lists
      subgroup: ''
      subgroupDescription: ''
      title: 'Get followers list'
      description: ''
      authenticated: false
      deprecated: false
      custom: []
    headers:
      Content-Type: application/json
      Accept: application/json
    urlParameters: []
    cleanUrlParameters: []
    queryParameters:
      page:
        name: page
        description: 'Page number for pagination.'
        required: false
        example: 1
        type: integer
        enumValues: []
        exampleWasSpecified: true
        nullable: false
        custom: []
      per_page:
        name: per_page
        description: 'Number of items per page.'
        required: false
        example: 20
        type: integer
        enumValues: []
        exampleWasSpecified: true
        nullable: false
        custom: []
    cleanQueryParameters:
      page: 1
      per_page: 20
    bodyParameters: []
    cleanBodyParameters: []
    fileParameters: []
    responses:
      -
        status: 200
        content: |-
          {
            "success": true,
            "data": {
              "data": [
                {
                  "id": 1,
                  "name": "John Doe",
                  "email": "john@example.com",
                  "created_at": "2024-01-01T00:00:00.000000Z"
                }
              ],
              "pagination": {
                "current_page": 1,
                "last_page": 5,
                "per_page": 20,
                "total": 100
              }
            }
          }
        headers: []
        description: ''
        custom: []
    responseFields: []
    auth: []
    controller: null
    method: null
    route: null
    custom: []
  -
    httpMethods:
      - GET
    uri: api/follow/following
    metadata:
      groupName: 'Follow Lists'
      groupDescription: |-

        APIs for managing follow relationships and lists
      subgroup: ''
      subgroupDescription: ''
      title: 'Get following list'
      description: ''
      authenticated: false
      deprecated: false
      custom: []
    headers:
      Content-Type: application/json
      Accept: application/json
    urlParameters: []
    cleanUrlParameters: []
    queryParameters:
      page:
        name: page
        description: 'Page number for pagination.'
        required: false
        example: 1
        type: integer
        enumValues: []
        exampleWasSpecified: true
        nullable: false
        custom: []
      per_page:
        name: per_page
        description: 'Number of items per page.'
        required: false
        example: 20
        type: integer
        enumValues: []
        exampleWasSpecified: true
        nullable: false
        custom: []
    cleanQueryParameters:
      page: 1
      per_page: 20
    bodyParameters: []
    cleanBodyParameters: []
    fileParameters: []
    responses:
      -
        status: 200
        content: |-
          {
            "success": true,
            "data": {
              "data": [
                {
                  "id": 2,
                  "name": "Jane Smith",
                  "email": "jane@example.com",
                  "created_at": "2024-01-01T00:00:00.000000Z"
                }
              ],
              "pagination": {
                "current_page": 1,
                "last_page": 3,
                "per_page": 20,
                "total": 50
              }
            }
          }
        headers: []
        description: ''
        custom: []
    responseFields: []
    auth: []
    controller: null
    method: null
    route: null
    custom: []
